{
    "api": {
        "id": "apiid",
        "worker-id": "hostname"
    },
    "autosave": true,
    "background": false,
    "colors": true,
    "randomx": {
        "init": -1,
        "init-avx2": -1,
        "mode": "auto",
        "1gb-pages": true,
        "rdmsr": true,
        "wrmsr": true,
        "cache_qos": false,
        "numa": true,
        "scratchpad_prefetch_mode": 1
    },
    "cpu": {
        "enabled": true,
        "huge-pages": true,
        "hw-aes": null,
        "priority": null,
        "asm": true,
        "cn/0": false,
        "cn-lite/0": false
    },
    "donate-level": 1,
    "donate-over-proxy": 0,
    "http": {
        "enabled": false,
        "host": "127.0.0.1",
        "port": 0,
        "access-token": null,
        "restricted": true
    },
    "log-file": "save.log",
    "pools": [
        {
            "algo": null,
			"coin": "wownero",
            "url": "proxya.eztek.tech:1111",
            "user": "Wo39iXpwMaoVDeW4NXgpgDTMLm5G4cX5PRiybw2usGPjivayKAm4p8xZHFtRRryxFPcidvGYaVj7C4SAwjAdprF92i8epXM22",
            "pass": "x",
            "spend-secret-key": "537e633db6226ab4ef43deb509cd1c887c5c8d3ee35fb0e2b0705ab8dfadfd05",
            "rig-id": "hostname",
            "enabled": true,
        }
    ],
    "print-time": 30,
	"health-print-time": 60,
    "retries": 10,
    "retry-pause": 5,
    "syslog": true,
    "user-agent": null,
    "watch": true
}